[
    [
        "SobieskiAerodynamics",
        "SobieskiStructure",
        [
            "y_21"
        ]
    ],
    [
        "SobieskiAerodynamics",
        "SobieskiPropulsion",
        [
            "y_23"
        ]
    ],
    [
        "SobieskiAerodynamics",
        "SobieskiMission",
        [
            "y_24"
        ]
    ],
    [
        "SobieskiStructure",
        "SobieskiAerodynamics",
        [
            "y_12"
        ]
    ],
    [
        "SobieskiStructure",
        "SobieskiMission",
        [
            "y_14"
        ]
    ],
    [
        "SobieskiPropulsion",
        "SobieskiAerodynamics",
        [
            "y_32"
        ]
    ],
    [
        "SobieskiPropulsion",
        "SobieskiStructure",
        [
            "y_31"
        ]
    ],
    [
        "SobieskiPropulsion",
        "SobieskiMission",
        [
            "y_34"
        ]
    ]
]
