{
    "name": "LineChart_options",
    "required": ["constraints_list"],
    "properties": {
        "constraints_list":{
        	"items": {
                "type": "string",
                "minItems": 1
            },
            "type": "array"
        }
    },
    "additionalProperties": false,
    "$schema": "http://json-schema.org/draft-04/schema",
    "type": "object"
}
